module fortune-go

go 1.16

require (
	github.com/gin-gonic/gin v1.7.4 // indirect
	github.com/go-playground/validator/v10 v10.9.0 // indirect
	github.com/golang/protobuf v1.5.2 // indirect
	github.com/json-iterator/go v1.1.12 // indirect
	github.com/mattn/go-isatty v0.0.14 // indirect
	github.com/modern-go/concurrent v0.0.0-20180306012644-bacd9c7ef1dd // indirect
	github.com/prometheus/client_golang v1.14.0 // indirect
	github.com/ugorji/go v1.2.6 // indirect
	golang.org/x/crypto v0.0.0-20211108221036-ceb1ce70b4fa // indirect
	golang.org/x/text v0.3.7 // indirect
	golang.org/x/tools/gopls v0.7.3 // indirect
	gopkg.in/go-playground/assert.v1 v1.2.1 // indirect
	gopkg.in/go-playground/validator.v9 v9.29.1 // indirect
	gopkg.in/yaml.v2 v2.4.0 // indirect
)
